^C:\USERS\KRYLO\SOURCE\REPOS\YANDEXPRACTICUM\YANDEXPRACTICUM\DEBUG\YANDEXPRACTICUM.OBJ
C:\USERS\KRYLO\SOURCE\REPOS\YANDEXPRACTICUM\DEBUG\YANDEXPRACTICUM.EXE
C:\USERS\KRYLO\SOURCE\REPOS\YANDEXPRACTICUM\DEBUG\YANDEXPRACTICUM.ILK
C:\USERS\KRYLO\SOURCE\REPOS\YANDEXPRACTICUM\DEBUG\YANDEXPRACTICUM.PDB
